Auditoria Arboviroses
…
7       Dengue 2020                        0.00              71.43
8       Dengue 2021                        0.00              85.37
9       Dengue 2022                        0.00              16.52
10      Dengue 2023                        0.11              10.87
11      Dengue 2024                        0.01              50.37
12      Dengue 2025                        0.33               9.33
13        Zika 2020                        0.00               0.00
14        Zika 2021                        0.00              90.91
15        Zika 2022                        1.59              88.89
16        Zika 2023                        0.00              77.85
17        Zika 2024                        0.00              33.64
18        Zika 2025                        0.00              19.44
Bairros nao pareados

# A tibble: 50 × 3
   bairro_key         NM_BAIRRO_DADOS   Casos
                              
 1 goytacases         Goytacases         1918
 2 travessao          Travessao          1565
 3 farol de sao tome  Farol De Sao Tome  1553
 4 parque novo jockey Pq Novo Jockey     1052
 5 parque penha       Pq Penha           1023
 6 tocos              Tocos               797
 7 donana             Donana              703
 8 tapera             Tapera              500
 9 baixa grande       Baixa Grande        472
10 parque imperial    Pq Imperial         444
# ℹ 40 more rows
…
